[{
  "id": 1,
  "fecha": "5/31/2019",
  "importe": 24,
  "latitud": 28.2281301,
  "ciudad": "Taiyang"
}, {
  "id": 2,
  "fecha": "9/15/2019",
  "importe": 60,
  "latitud": 17.228242,
  "ciudad": "San Emilio"
}, {
  "id": 3,
  "fecha": "3/7/2020",
  "importe": 80,
  "latitud": -7.1989224,
  "ciudad": "Haurpanggung"
}, {
  "id": 4,
  "fecha": "9/12/2019",
  "importe": 7,
  "latitud": 50.1218351,
  "ciudad": "Raszczyce"
}, {
  "id": 5,
  "fecha": "7/27/2019",
  "importe": 93,
  "latitud": 32.7827213,
  "ciudad": "Ise"
}, {
  "id": 6,
  "fecha": "9/24/2019",
  "importe": 24,
  "latitud": 22.69569,
  "ciudad": "Xinxing"
}, {
  "id": 7,
  "fecha": "11/9/2019",
  "importe": 34,
  "latitud": 34.7465855,
  "ciudad": "Fukuroi"
}, {
  "id": 8,
  "fecha": "4/28/2019",
  "importe": 40,
  "latitud": 26.201227,
  "ciudad": "Liuzhi"
}, {
  "id": 9,
  "fecha": "7/27/2019",
  "importe": 81,
  "latitud": "39.66667",
  "ciudad": "Yiánnouli"
}, {
  "id": 10,
  "fecha": "5/7/2019",
  "importe": 17,
  "latitud": 39.7298157,
  "ciudad": "Rosmaninhal"
}]
